diagram/MuxPE_test_MANUAL/MuxPE_test.vcd
$date
2021-09-24T16:43+0000
$end
$version
0.2
$end
$comment

$end
$timescale 1ps  $end
$scope module MuxPE $end
 $var wire 32 ! io_out $end
 $var wire 32 " io_in_2 $end
 $var wire 32 # in_1 $end
 $var wire 32 $ io_in_1 $end
 $var wire 2 % io_sel $end
 $var wire 32 & in_3 $end
 $var wire 32 ' in_0 $end
 $var wire 1 ( clock $end
 $var wire 32 ) io_in_0 $end
 $var wire 32 * io_in_3 $end
 $var wire 32 + out $end
 $var wire 32 , in_2 $end
 $var wire 2 - sel $end
 $var wire 1 . reset $end
$upscope $end
$enddefinitions $end
$dumpvars
bxxxxxxxxxxxxxxxxxxxxxxxxxxxxxxxx *
bxxxxxxxxxxxxxxxxxxxxxxxxxxxxxxxx +
bxxxxxxxxxxxxxxxxxxxxxxxxxxxxxxxx #
bxxxxxxxxxxxxxxxxxxxxxxxxxxxxxxxx $
bxxxxxxxxxxxxxxxxxxxxxxxxxxxxxxxx ,
0(
bxxxxxxxxxxxxxxxxxxxxxxxxxxxxxxxx &
x.
bxx %
bxxxxxxxxxxxxxxxxxxxxxxxxxxxxxxxx '
bxxxxxxxxxxxxxxxxxxxxxxxxxxxxxxxx !
bxx -
bxxxxxxxxxxxxxxxxxxxxxxxxxxxxxxxx "
bxxxxxxxxxxxxxxxxxxxxxxxxxxxxxxxx )
$end
#0
1.
#1
bxxxxxxxxxxxxxxxxxxxxxxxxxxxxxxxx #
b00000000000000000000000000000000 +
b00000000000000000000000000000000 !
bxxxxxxxxxxxxxxxxxxxxxxxxxxxxxxxx '
1(
bxx -
bxxxxxxxxxxxxxxxxxxxxxxxxxxxxxxxx &
bxxxxxxxxxxxxxxxxxxxxxxxxxxxxxxxx ,
#2
0(
#3
1(
#4
0(
#5
1(
#6
0(
#7
1(
#8
0(
#9
1(
#10
0.
0(
#11
bxxxxxxxxxxxxxxxxxxxxxxxxxxxxxxxx !
bxxxxxxxxxxxxxxxxxxxxxxxxxxxxxxxx +
1(
#12
0(
#13
1(
#14
0(
#15
1(
#16
0(
#17
1(
#18
0(
#19
1(
#20
0(
#21
1(
#22
0(
#23
1(
#24
0(
#25
1(
#26
0(
#27
1(
#28
0(
#29
1(
#30
b00 %
b00000000000000000000000000000000 $
b00000000000000000000000000000000 "
b00000000000000000000000000111011 )
0(
b00000000000000000000000000000000 *
#31
b00000000000000000000000000000000 &
b00000000000000000000000000000000 ,
b00 -
1(
b00000000000000000000000000000000 #
b00000000000000000000000000111011 '
#32
0(
#33
b00000000000000000000000000111011 !
b00000000000000000000000000111011 +
1(
#34
0(
#35
1(
#36
0(
#37
1(
#38
0(
#39
1(
#40
0(
#41
1(
#42
0(
#43
1(
#44
0(
#45
1(
#46
0(
#47
1(
#48
0(
#49
1(
#50
b00000000000000000000000000111011 $
b01 %
0(
b00000000000000000000000000000000 )
#51
b00000000000000000000000000000000 '
b01 -
1(
b00000000000000000000000000111011 #
#52
0(
#53
1(
#54
0(
#55
1(
#56
0(
#57
1(
#58
0(
#59
1(
#60
0(
#61
1(
#62
0(
#63
1(
#64
0(
#65
1(
#66
0(
#67
1(
#68
0(
#69
1(
#70
b10 %
b00000000000000000000000000000000 $
0(
b00000000000000000000000000111011 "
#71
1(
b00000000000000000000000000000000 #
b10 -
b00000000000000000000000000111011 ,
#72
0(
#73
1(
#74
0(
#75
1(
#76
0(
#77
1(
#78
0(
#79
1(
#80
0(
#81
1(
#82
0(
#83
1(
#84
0(
#85
1(
#86
0(
#87
1(
#88
0(
#89
1(
#90
b11 %
b00000000000000000000000000000000 "
0(
b00000000000000000000000000111011 *
#91
b00000000000000000000000000000000 ,
b11 -
1(
b00000000000000000000000000111011 &
#92
0(
#93
1(
#94
0(
#95
1(
#96
0(
#97
1(
#98
0(
#99
1(
#100
0(
#101
1(
#102
0(
#103
1(
#104
0(
#105
1(
#106
0(
#107
1(
#108
0(
#109
1(
#110
0(
#111
1(
#112
0(
#113
1(
#114
0(
#115
1(
#116
0(
#117
1(
#118
0(
#119
1(
#120
0(
#121
1(
#122
0(
#123
1(
#124
0(
#125
1(
#126
0(
#127
1(
#128
0(
#129
1(
#130
b00 %
b01000010011011000000000000000000 )
0(
b00000000000000000000000000000000 *
#131
b00000000000000000000000000000000 &
b00 -
1(
b01000010011011000000000000000000 '
#132
0(
#133
b01000010011011000000000000000000 !
b01000010011011000000000000000000 +
1(
#134
0(
#135
1(
#136
0(
#137
1(
#138
0(
#139
1(
#140
0(
#141
1(
#142
0(
#143
1(
#144
0(
#145
1(
#146
0(
#147
1(
#148
0(
#149
1(
#150
b01000010011011000000000000000000 $
b01 %
0(
b00000000000000000000000000000000 )
#151
b00000000000000000000000000000000 '
b01000010011011000000000000000000 #
b01 -
1(
#152
0(
#153
1(
#154
0(
#155
1(
#156
0(
#157
1(
#158
0(
#159
1(
#160
0(
#161
1(
#162
0(
#163
1(
#164
0(
#165
1(
#166
0(
#167
1(
#168
0(
#169
1(
#170
b01000010011011000000000000000000 "
b10 %
b00000000000000000000000000000000 $
0(
#171
1(
b00000000000000000000000000000000 #
b01000010011011000000000000000000 ,
b10 -
#172
0(
#173
1(
#174
0(
#175
1(
#176
0(
#177
1(
#178
0(
#179
1(
#180
0(
#181
1(
#182
0(
#183
1(
#184
0(
#185
1(
#186
0(
#187
1(
#188
0(
#189
1(
#190
b11 %
b00000000000000000000000000000000 "
0(
b01000010011011000000000000000000 *
#191
b00000000000000000000000000000000 ,
b11 -
1(
b01000010011011000000000000000000 &
