diagram/recFN2INT_test_ADD_INT/recFN2INT_test.vcd
$date
2021-08-21T17:57+0000
$end
$version
0.2
$end
$comment

$end
$timescale 1ps  $end
$scope module recFN2INT $end
 $var wire 32 4 io_out $end
 $var wire 1 "? io_signed $end
 $var wire 32 "h recFNToIN_out $end
 $var wire 1 #& clock $end
 $var wire 3 #W io_round $end
 $var wire 33 #l iNToRecFN_1_out $end
 $var wire 32 #x io_in $end
 $var wire 3 #{ round_mode $end
 $var wire 32 $# in_test $end
 $var wire 1 $' reset $end
  $scope module iNToRecFN_1 $end
   $var wire 5 ! _intAsRawFloat_adjustedNormDist_T_47 $end
   $var wire 1 $ _intAsRawFloat_adjustedNormDist_T_11 $end
   $var wire 5 ) _intAsRawFloat_adjustedNormDist_T_32 $end
   $var wire 1 * _intAsRawFloat_adjustedNormDist_T_26 $end
   $var wire 33 , io_out $end
   $var wire 1 : _intAsRawFloat_adjustedNormDist_T_29 $end
   $var wire 1 = _intAsRawFloat_adjustedNormDist_T_14 $end
   $var wire 1 > _intAsRawFloat_adjustedNormDist_T_7 $end
   $var wire 1 C _intAsRawFloat_adjustedNormDist_T_20 $end
   $var wire 1 J _intAsRawFloat_adjustedNormDist_T_1 $end
   $var wire 63 K _intAsRawFloat_sig_T $end
   $var wire 7 P _intAsRawFloat_out_sExp_T_1 $end
   $var wire 5 \ _intAsRawFloat_adjustedNormDist_T_52 $end
   $var wire 1 ` _intAsRawFloat_adjustedNormDist_T_4 $end
   $var wire 5 j _intAsRawFloat_adjustedNormDist_T_46 $end
   $var wire 5 o _intAsRawFloat_adjustedNormDist_T_40 $end
   $var wire 1 q _intAsRawFloat_out_isZero_T_1 $end
   $var wire 5 x _intAsRawFloat_adjustedNormDist_T_34 $end
   $var wire 1 y _intAsRawFloat_adjustedNormDist_T_28 $end
   $var wire 5 | _intAsRawFloat_adjustedNormDist_T_61 $end
   $var wire 5 "! _intAsRawFloat_adjustedNormDist_T_55 $end
   $var wire 5 "" _intAsRawFloat_adjustedNormDist_T_49 $end
   $var wire 5 "* intAsRawFloat_out_sExp_lo $end
   $var wire 1 "- io_signedIn $end
   $var wire 5 ". _intAsRawFloat_adjustedNormDist_T_58 $end
   $var wire 1 "2 _intAsRawFloat_adjustedNormDist_T_16 $end
   $var wire 5 "6 _intAsRawFloat_adjustedNormDist_T_43 $end
   $var wire 5 "8 _intAsRawFloat_adjustedNormDist_T_37 $end
   $var wire 32 "9 intAsRawFloat_extAbsIn_lo $end
   $var wire 3 ": io_roundingMode $end
   $var wire 1 "< _intAsRawFloat_adjustedNormDist_T_22 $end
   $var wire 33 "D _intAsRawFloat_absIn_T $end
   $var wire 1 "I _intAsRawFloat_adjustedNormDist_T_10 $end
   $var wire 1 "J _intAsRawFloat_adjustedNormDist_T_25 $end
   $var wire 1 "K _intAsRawFloat_adjustedNormDist_T_19 $end
   $var wire 64 "P _intAsRawFloat_extAbsIn_T $end
   $var wire 1 "Q intAsRawFloat__sign $end
   $var wire 1 "R _intAsRawFloat_adjustedNormDist_T_31 $end
   $var wire 5 "b _intAsRawFloat_out_sExp_T $end
   $var wire 1 "c _intAsRawFloat_adjustedNormDist_T_6 $end
   $var wire 32 "e intAsRawFloat_extAbsIn $end
   $var wire 32 "f _intAsRawFloat_absIn_T_1 $end
   $var wire 1 "g _intAsRawFloat_adjustedNormDist_T_13 $end
   $var wire 1 "o _intAsRawFloat_adjustedNormDist_T_9 $end
   $var wire 5 "w intAsRawFloat_adjustedNormDist $end
   $var wire 5 "x _intAsRawFloat_adjustedNormDist_T_57 $end
   $var wire 1 "y intAsRawFloat_sign $end
   $var wire 5 ## _intAsRawFloat_adjustedNormDist_T_45 $end
   $var wire 5 #) _intAsRawFloat_adjustedNormDist_T_51 $end
   $var wire 1 #* _intAsRawFloat_adjustedNormDist_T_3 $end
   $var wire 5 #, _intAsRawFloat_adjustedNormDist_T_39 $end
   $var wire 1 #0 _intAsRawFloat_adjustedNormDist_T_30 $end
   $var wire 1 #1 _intAsRawFloat_sign_T $end
   $var wire 5 #6 _intAsRawFloat_adjustedNormDist_T_54 $end
   $var wire 5 #7 _intAsRawFloat_adjustedNormDist_T_33 $end
   $var wire 1 #9 _intAsRawFloat_adjustedNormDist_T_27 $end
   $var wire 1 #= _intAsRawFloat_adjustedNormDist_T_12 $end
   $var wire 32 #> intAsRawFloat_sig $end
   $var wire 1 #@ intAsRawFloat__isZero $end
   $var wire 5 #A _intAsRawFloat_adjustedNormDist_T_60 $end
   $var wire 5 #F _intAsRawFloat_adjustedNormDist_T_48 $end
   $var wire 1 #I _intAsRawFloat_adjustedNormDist_T_15 $end
   $var wire 5 #J _intAsRawFloat_adjustedNormDist_T_42 $end
   $var wire 1 #R _intAsRawFloat_adjustedNormDist_T_21 $end
   $var wire 5 #U _intAsRawFloat_adjustedNormDist_T_36 $end
   $var wire 8 #Y intAsRawFloat__sExp $end
   $var wire 1 #_ intAsRawFloat__isInf $end
   $var wire 1 #a _intAsRawFloat_adjustedNormDist_T_24 $end
   $var wire 1 #d _intAsRawFloat_adjustedNormDist_T_18 $end
   $var wire 1 #e _intAsRawFloat_adjustedNormDist_T_2 $end
   $var wire 5 #k _intAsRawFloat_adjustedNormDist_T_53 $end
   $var wire 1 #n _intAsRawFloat_adjustedNormDist_T_5 $end
   $var wire 5 $! _intAsRawFloat_adjustedNormDist_T_41 $end
   $var wire 5 $, _intAsRawFloat_adjustedNormDist_T_56 $end
   $var wire 1 $- _intAsRawFloat_adjustedNormDist_T_8 $end
   $var wire 1 $5 _intAsRawFloat_out_isZero_T $end
   $var wire 5 $9 _intAsRawFloat_adjustedNormDist_T_35 $end
   $var wire 8 $> _intAsRawFloat_out_sExp_T_2 $end
   $var wire 5 $A _intAsRawFloat_adjustedNormDist_T_38 $end
   $var wire 5 $B _intAsRawFloat_adjustedNormDist_T_50 $end
   $var wire 5 $E _intAsRawFloat_adjustedNormDist_T_59 $end
   $var wire 1 $F _intAsRawFloat_adjustedNormDist_T_17 $end
   $var wire 33 $G intAsRawFloat__sig $end
   $var wire 1 $I _intAsRawFloat_adjustedNormDist_T_23 $end
   $var wire 1 $M intAsRawFloat__isNaN $end
   $var wire 32 $N io_in $end
   $var wire 5 $Q _intAsRawFloat_adjustedNormDist_T_44 $end
    $scope module roundAnyRawFNToRecFN $end
     $var wire 1 " roundPosBit $end
     $var wire 33 # io_out $end
     $var wire 9 ' _expOut_T_1 $end
     $var wire 1 ( _roundMagUp_T_1 $end
     $var wire 27 + _anyRoundExtra_T $end
     $var wire 23 / _common_fractOut_T_2 $end
     $var wire 1 2 _overflow_roundMagUp_T $end
     $var wire 27 3 _roundedSig_T $end
     $var wire 9 5 _common_expOut_T $end
     $var wire 10 6 sAdjustedExp $end
     $var wire 33 7 _io_out_T $end
     $var wire 9 8 _expOut_T_4 $end
     $var wire 25 9 roundMask_hi $end
     $var wire 1 ; io_in_isInf $end
     $var wire 1 A _fractOut_T_1 $end
     $var wire 26 B _roundedSig_T_6 $end
     $var wire 1 I _commonCase_T_3 $end
     $var wire 1 L _fractOut_T_4 $end
     $var wire 26 M _roundedSig_T_9 $end
     $var wire 1 Q common_totalUnderflow $end
     $var wire 26 S roundedSig $end
     $var wire 10 T _sAdjustedExp_T $end
     $var wire 1 W pegMinNonzeroMagOut $end
     $var wire 26 [ _roundedSig_T_16 $end
     $var wire 1 ] commonCase $end
     $var wire 9 b _expOut_T_11 $end
     $var wire 1 c notNaN_isInfOut $end
     $var wire 23 f _common_fractOut_T $end
     $var wire 1 i _roundedSig_T_3 $end
     $var wire 9 l _expOut_T_14 $end
     $var wire 9 n common_expOut $end
     $var wire 1 p io_infiniteExc $end
     $var wire 1 s _roundIncr_T_1 $end
     $var wire 9 t _expOut_T_3 $end
     $var wire 27 u _roundedSig_T_10 $end
     $var wire 9 ~ _expOut_T_20 $end
     $var wire 1 "$ io_in_isNaN $end
     $var wire 9 ") _sAdjustedExp_T_1 $end
     $var wire 8 "+ io_in_sExp $end
     $var wire 9 "1 _expOut_T_17 $end
     $var wire 1 "3 _roundedSig_T_13 $end
     $var wire 1 "7 roundingMode_odd $end
     $var wire 9 "; _expOut_T_6 $end
     $var wire 26 "> adjustedSig_hi $end
     $var wire 23 "A _fractOut_T_3 $end
     $var wire 26 "C shiftedRoundMask_lo $end
     $var wire 23 "F _common_fractOut_T_1 $end
     $var wire 1 "G overflow $end
     $var wire 2 "H _sRoundedExp_T $end
     $var wire 9 "S _expOut_T_9 $end
     $var wire 1 "X _commonCase_T $end
     $var wire 1 "Y _roundedSig_T_5 $end
     $var wire 1 "Z io_in_isZero $end
     $var wire 1 "[ _pegMaxFiniteMagOut_T $end
     $var wire 1 "\ anyRoundExtra $end
     $var wire 1 "^ _roundIncr_T $end
     $var wire 27 "_ roundPosMask $end
     $var wire 1 "a roundingMode_max $end
     $var wire 1 "i anyRound $end
     $var wire 1 "k roundingMode_near_even $end
     $var wire 9 "q _expOut_T_16 $end
     $var wire 25 "r _roundedSig_T_12 $end
     $var wire 1 "s _commonCase_T_2 $end
     $var wire 26 "v _roundedSig_T_8 $end
     $var wire 1 "} notNaN_isSpecialInfOut $end
     $var wire 9 "~ _expOut_T_19 $end
     $var wire 1 #" common_overflow $end
     $var wire 1 #% overflow_roundMagUp $end
     $var wire 26 #' _roundedSig_T_15 $end
     $var wire 9 #+ _expOut_T_10 $end
     $var wire 26 #. _roundedSig_T_2 $end
     $var wire 10 #2 io_out_hi $end
     $var wire 9 #5 _expOut_T_2 $end
     $var wire 1 #: roundIncr $end
     $var wire 1 #; _roundMagUp_T_2 $end
     $var wire 9 #? _expOut_T_13 $end
     $var wire 11 #B sRoundedExp $end
     $var wire 27 #D adjustedSig $end
     $var wire 27 #G roundMask $end
     $var wire 23 #K common_fractOut $end
     $var wire 9 #M _expOut_T_5 $end
     $var wire 1 #N _notNaN_isInfOut_T $end
     $var wire 7 #P _adjustedSig_T $end
     $var wire 1 #S _pegMinNonzeroMagOut_T $end
     $var wire 23 #T fractOut $end
     $var wire 23 #X _fractOut_T_2 $end
     $var wire 9 #[ _expOut_T_8 $end
     $var wire 25 #] _roundedSig_T_1 $end
     $var wire 1 #b signOut $end
     $var wire 23 #c _fractOut_T_5 $end
     $var wire 1 #h _pegMinNonzeroMagOut_T_1 $end
     $var wire 1 #j pegMaxFiniteMagOut $end
     $var wire 27 #m shiftedRoundMask $end
     $var wire 9 #o _expOut_T_12 $end
     $var wire 33 #p io_in_sig $end
     $var wire 1 #r adjustedSig_lo $end
     $var wire 27 #s _roundPosMask_T $end
     $var wire 1 #t _roundedSig_T_4 $end
     $var wire 3 #u _sRoundedExp_T_1 $end
     $var wire 1 #| _fractOut_T $end
     $var wire 1 #~ _roundIncr_T_2 $end
     $var wire 1 $" _commonCase_T_1 $end
     $var wire 3 $& io_roundingMode $end
     $var wire 1 $) roundMagUp $end
     $var wire 27 $* _roundedSig_T_11 $end
     $var wire 1 $/ roundingMode_near_maxMag $end
     $var wire 9 $1 _expOut_T_15 $end
     $var wire 1 $2 io_invalidExc $end
     $var wire 1 $3 _roundMagUp_T $end
     $var wire 9 $4 expOut $end
     $var wire 26 $7 _roundedSig_T_7 $end
     $var wire 1 $8 _expOut_T $end
     $var wire 9 $< _expOut_T_18 $end
     $var wire 9 $@ _expOut_T_7 $end
     $var wire 1 $H isNaNOut $end
     $var wire 26 $J _roundedSig_T_14 $end
     $var wire 27 $K _roundPosBit_T $end
     $var wire 1 $O roundingMode_min $end
     $var wire 1 $R io_in_sign $end
    $upscope $end
  $upscope $end
  $scope module recFNToIN $end
   $var wire 1 % _roundIncr_T_7 $end
   $var wire 1 & rawIn__isZero $end
   $var wire 1 - magGeOne $end
   $var wire 1 . _rawIn_out_isInf_T $end
   $var wire 32 0 roundedInt $end
   $var wire 1 1 common_inexact $end
   $var wire 1 < roundingMode_max $end
   $var wire 10 ? _rawIn_out_sExp_T $end
   $var wire 32 @ excOut $end
   $var wire 1 D _rawIn_out_isInf_T_2 $end
   $var wire 1 E roundingMode_odd $end
   $var wire 1 F _common_inexact_T_1 $end
   $var wire 1 G _common_overflow_T_14 $end
   $var wire 1 H _roundIncr_near_even_T_3 $end
   $var wire 1 N _io_out_T $end
   $var wire 23 O shiftedSig_lo $end
   $var wire 1 R _common_overflow_T_8 $end
   $var wire 1 U roundingMode_near_even $end
   $var wire 2 V _common_inexact_T $end
   $var wire 2 X _roundIncr_near_even_T_6 $end
   $var wire 1 Y _common_overflow_T_17 $end
   $var wire 9 Z rawIn_exp $end
   $var wire 1 ^ _common_overflow_T_2 $end
   $var wire 1 _ _rawIn_out_isNaN_T_1 $end
   $var wire 2 a _rawIn_isSpecial_T $end
   $var wire 32 d _roundedInt_T_2 $end
   $var wire 22 e _alignedSig_T $end
   $var wire 1 g _magJustBelowOne_T $end
   $var wire 1 h _roundIncr_T_6 $end
   $var wire 1 k rawIn_isSpecial $end
   $var wire 1 m _roundIncr_T_9 $end
   $var wire 1 r _excSign_T $end
   $var wire 8 v posExp $end
   $var wire 3 w io_roundingMode $end
   $var wire 1 z magGeOne_atOverflowEdge $end
   $var wire 1 { rawIn_out_sig_hi_lo $end
   $var wire 1 } _common_overflow_T_5 $end
   $var wire 30 "# _roundCarryBut2_T $end
   $var wire 1 "% _common_overflow_T_11 $end
   $var wire 5 "& _shiftedSig_T_2 $end
   $var wire 1 "' magJustBelowOne $end
   $var wire 55 "( shiftedSig $end
   $var wire 32 ", unroundedInt $end
   $var wire 1 "/ _rawIn_out_isInf_T_1 $end
   $var wire 25 "0 rawIn__sig $end
   $var wire 1 "4 _roundIncr_T_3 $end
   $var wire 1 "5 _roundIncr_near_maxMag_T_1 $end
   $var wire 32 "= _io_out_T_1 $end
   $var wire 32 "@ _excOut_T_1 $end
   $var wire 1 "B _magJustBelowOne_T_1 $end
   $var wire 1 "E rawIn__isNaN $end
   $var wire 1 "L rawIn__isInf $end
   $var wire 1 "M _roundIncr_near_even_T_5 $end
   $var wire 33 "N _roundedInt_T_1 $end
   $var wire 24 "O _shiftedSig_T $end
   $var wire 34 "T alignedSig $end
   $var wire 33 "U alignedSig_hi $end
   $var wire 1 "V invalidExc $end
   $var wire 1 "W excSign $end
   $var wire 1 "] _roundIncr_near_even_T_8 $end
   $var wire 1 "` _roundedInt_T_4 $end
   $var wire 32 "d _complUnroundedInt_T $end
   $var wire 23 "j rawIn_out_sig_lo $end
   $var wire 1 "l _roundCarryBut2_T_1 $end
   $var wire 1 "m _roundedInt_T $end
   $var wire 1 "n rawIn__sign $end
   $var wire 2 "p _roundIncr_near_even_T_2 $end
   $var wire 33 "t io_in $end
   $var wire 1 "u _common_overflow_T_13 $end
   $var wire 2 "z _roundIncr_near_even_T $end
   $var wire 1 "{ rawIn_isZero $end
   $var wire 1 "| _common_overflow_T_7 $end
   $var wire 1 #! _roundIncr_T_5 $end
   $var wire 31 #$ _excOut_T_3 $end
   $var wire 1 #( roundingMode_min $end
   $var wire 1 #- roundCarryBut2 $end
   $var wire 1 #/ _common_overflow_T $end
   $var wire 31 #3 _common_overflow_T_1 $end
   $var wire 1 #4 _common_overflow_T_16 $end
   $var wire 5 #8 _shiftedSig_T_1 $end
   $var wire 1 #< _common_overflow_T_10 $end
   $var wire 1 #C _common_overflow_T_4 $end
   $var wire 1 #E _roundIncr_T_8 $end
   $var wire 32 #H io_out $end
   $var wire 1 #L _roundIncr_T_2 $end
   $var wire 1 #O _excOut_T $end
   $var wire 3 #Q _rawIn_isZero_T $end
   $var wire 10 #V rawIn__sExp $end
   $var wire 1 #Z _common_inexact_T_2 $end
   $var wire 1 #\ _roundIncr_near_maxMag_T $end
   $var wire 1 #^ _roundIncr_near_even_T_4 $end
   $var wire 1 #` common_overflow $end
   $var wire 1 #f _roundIncr_T $end
   $var wire 1 #g io_signedOut $end
   $var wire 1 #i _roundIncr_near_even_T_7 $end
   $var wire 1 #q roundIncr_near_even $end
   $var wire 32 #v _roundedInt_T_3 $end
   $var wire 1 #w _common_overflow_T_3 $end
   $var wire 32 #y _unroundedInt_T $end
   $var wire 1 #z roundingMode_near_maxMag $end
   $var wire 25 #} _rawIn_out_sig_T $end
   $var wire 1 $$ _roundIncr_T_1 $end
   $var wire 1 $% roundIncr_near_maxMag $end
   $var wire 1 $( _roundIncr_near_even_T_1 $end
   $var wire 1 $+ _rawIn_out_sign_T $end
   $var wire 1 $. _common_overflow_T_12 $end
   $var wire 1 $0 roundIncr $end
   $var wire 1 $6 alignedSig_lo $end
   $var wire 1 $: _common_overflow_T_6 $end
   $var wire 1 $; _common_overflow_T_15 $end
   $var wire 1 $= _roundIncr_T_4 $end
   $var wire 2 $? rawIn_out_sig_hi $end
   $var wire 1 $C _excOut_T_2 $end
   $var wire 1 $D _common_overflow_T_9 $end
   $var wire 32 $L complUnroundedInt $end
   $var wire 1 $P _rawIn_out_isNaN_T $end
  $upscope $end
  $scope module roundAnyRawFNToRecFN $end
  $upscope $end
$upscope $end
$enddefinitions $end
$dumpvars
b111111111 "S
b100011010 5
b01100 $B
b0100011010 T
b11111111111111111110011010011110 "d
b100011010 $4
b10000000000000000000000000000000 "=
0$D
b00101 "x
x#`
b111111111111111111111111100 u
bxxxxx #8
b01111 ""
0$8
0m
b00000000000000000000000 #c
b11001 #J
bxxxxxxxxxxxxxxxxxxxxxxxxx #}
b01111 #F
bxxxxxxxxxxxxxxxxxxxxxxxxxxxxxxxxx 7
b000000000000000000000000010 $K
0#S
bxxx $&
0L
x#e
b11111111111111111110011010011111 0
x"o
0D
x$F
x"R
bxxxxxxxxxxxxxxxxxxxxxxxxxxxxxxxx "f
0z
1#i
1$5
xY
1"s
0H
x#~
x#a
x$-
x#L
b0000110111000000000000 e
b0100011010 6
0$C
1#g
0"l
xW
0#E
b010100011001100000000111010000000 #p
0p
x:
b011111111111111111110011010011111 "N
b00 "H
b11001 ##
b10000000000000000000000000000000 @
0"}
0#^
xh
b00000000000000000001100101100001 ",
0"`
x"]
x#!
b11001 $A
b00101000110011000000001111 #.
b11101 x
x"n
x$0
x#:
1"/
x*
x"<
x"'
b00000000000000000000000000 $7
b10 "z
b00101 |
b000000000 b
x$.
bxxxxxxxxxx #V
b000000000000000000000000000000010100011001100000000111010000000 K
0;
0"k
b11001 o
x#I
x$
x"K
b1011010 P
b11111111111111111110011010011110 $L
0k
0#@
x$P
bxxxxxxxxxxxxxxxxxxxxxxxx "O
x#=
0#_
x"?
b11011 $9
b000000000 "q
1]
b10000000000000000000000000000000 #H
1$"
x#N
x"m
bxxxxxxxxxxxxxxxxxxxxxxxxxxxxxxxxx #l
b01011010 "+
b00101000110011000000001110 S
0"Y
b0101000110011000000001110 "r
b00101 $E
bxxxxx "&
b01000110011000000001110 #K
x"|
0<
x$)
x"g
x"J
x"5
b00101 "w
b00101 "b
b00111 "!
bxxxxxxxxxxxxxxxxxxxxxxxxxxxxxxxxx #
bxxxxxxxxxxxxxxxxxxxxxxx "j
0#\
0"{
b00000000000000000001100101100001 #y
0U
b10000000000000000000000000000000 "@
x$:
1#/
bxxxxxxxxxxxxxxxxxxxxxxxxxxxxxxxx $N
b11111111111111111111111111 "v
b100011010 "~
b100011010 $@
bxx a
b01 "p
1{
b11001 "6
0$;
1#t
0}
b000000000 l
1^
0"G
xG
0#(
xy
0"\
1I
bxxxxxxxxxxxxxxxxxxxxxxxxxxxxxxxx "9
b00000000000000000000000001 "C
x`
0$/
x#h
x.
1(
x$I
b0000000000000000000110010110000100000110111000000000000 "(
xC
x"M
b01111 !
b01011 #6
b00000000000000000000000001 $J
bxxxxxxxxxxxxxxxxxxxxxxxxxxxxxxxx $#
x#d
0"L
0"7
x$=
x"Q
0&
bxxxxxxxxxxxxxxxxxxxxxxxxxxxxxxxx #x
x#*
x"I
b111111111111111111111111110 #s
bxxxxxxxxxx ?
0#z
bxxxxxxxxxxxxxxxxxxxxxxxxxxxxxxxxxxxxxxxxxxxxxxxxxxxxxxxxxxxxxxxx "P
b01011010 $>
xR
x#w
x"y
b100011010 t
b000000000000000000011001011000010 "U
b01 V
0$O
b01000110011000000001110 "F
xc
0g
xN
b0101000110011000000001110 #]
0#<
x"u
bxxxxxxxxxxxxxxxxxxxxxxxxxxxxxxxxx "t
x#9
b111111111 #o
b01011 #k
b0000000 #P
b11010 "*
b000 #u
b0000000000000000000000000000000 #$
b000000000 ~
b100011010 #?
bxxx #{
0$M
b000000000000000000000000001 #m
x$+
bxxxxxxxxxxxxxxxxxxxxxxxxxxxxxxxx "h
b000000000000000001100101100001 "#
b00000000000000000000000000 #'
b111111111 ";
b100011010 n
b10100011001100000000111010000000 #>
1"X
b11111111111111111110011010011111 #v
b100011010 $1
b0000000000000000000000000 9
0%
bxxxxxxxxxxxxxxxxxxxxxxxxx "0
b000000000000000000000000011 #G
b00101 #A
b01011 #)
b00101 ".
b010100011001100000000111000 $*
b010100011001100000000111010 #D
x#%
0$(
b0000000000000000000110010110000101 "T
b000000000 '
0"4
x$%
x"c
bxxxxxxxxx Z
b01000110011000000001110 /
b100011010 #+
0"Z
0#;
b010100011001100000000111010000000 $G
0#&
0Q
1"-
x"W
x"B
x"%
b11111 )
b01000110011000000001110 #T
b000000000 #M
b01000110011000000001110 "A
b100011010 ")
1"[
x#f
bxxxxxxxxxxxxxxxxxxxxxxxxxxxxxxxx 4
0E
0"$
b11101 #7
x#4
b010100011001100000000111011 3
b00100011010 #B
b01 $?
0#|
0$H
1#O
b00101000110011000000001111 M
b0000000000000000001100101100001 #3
b01 X
0q
b000000000000000000000000010 "_
0i
0"3
x#C
bxxx ":
x$$
x"E
bxxxxxxxxxxxxxxxxxxxxxxxxxxxxxxxxx "D
b00101000110011000000001110 [
b10100011001100000000111 f
0"a
bxxx #Q
x#q
x$R
11
1F
b110010100 8
x"V
b01011010 #Y
bxxx w
0#r
0#j
1#Z
b11111111111111111110011010011111 d
xJ
x_
x-
x$3
x#R
b000000000000000000000000000 +
b11001 $!
1r
0$2
bxxxxxxxx v
bxxxxxxxxxxxxxxxxxxxxxxx O
x>
x$'
x#1
bxxxxxxxxxx #2
b10000 j
b111111111 #5
b000000000 $<
b000000000 #[
b11001 $Q
1"i
b00111 $,
x#-
02
b01010001100110000000011101 ">
b11001 "8
b100011010 "1
0"^
x#n
0#"
bxxxxxxxxxxxxxxxxxxxxxxxxxxxxxxxx "e
b00000000000000000000000001 B
b11010 #U
b00000000000000000000000 #X
bxxxxxxxxxxxxxxxxxxxxxxxxxxxxxxxxx ,
1$6
0s
bxxx #W
x=
1"
0A
x#b
b11001 #,
x#0
x"2
b01011 \
$end
#0
1$'
#1
b000101000110011000000001110000 "#
b00001 "w
b010110101010011011001110100 $*
1"4
x#b
b100011110 n
x#h
b00100011110 #B
bxxxxx #8
b100011110 t
b11110 "*
b100011110 #?
b010110101010011011001110100110100 #p
b01011110 $>
x$R
0F
bxxxxxxxxxxxxxxxxxxxxxxxxxxxxxxxxx #l
x"Q
b100011110 $@
b000000000000000000000000000 $K
b00000000000000000000000001 #'
b00 X
b0000010100011001100000000111000000000000000000000000000 "(
bxxxxxxxxxxxxxxxxxxxxxxxxx "0
b1011110 P
b01101010100110110011101 /
bxxxxxxxxxx #2
b000000000000000000000000001 +
x"n
b01011110 #Y
0(
b00101101010100110110011101 S
xG
b010110101010011011001110101 #D
1%
xN
b01101010100110110011101 #K
b00000101000110011000000001110000 ",
b0000000000000000000000 e
bxxxxxxxxxxxxxxxxxxxxxxx "j
b100011110 "1
b0000010100011001100000000111000000 "T
b0101101010100110110011101 "r
bxxxxxxxx v
x#0
01
bxxx ":
0#i
b100011110 #+
b00101101010100110110011101 [
x"y
b00 V
b100011110 $4
b00000101000110011000000001110000 $L
b00000101000110011000000001110000 #H
bxxx w
b000001010001100110000000011100000 "U
bxxxxxxxxxxxxxxxxxxxxxxxxxxxxxxxxx #
bxxxxxxxxxxxxxxxxxxxxxxxxxxxxxxxx "9
b000000000000000000000000000000010110101010011011001110100110100 K
1"3
bxxxxxxxxxxxxxxxxxxxxxxx O
x"m
bxxxxxxxxxxxxxxxxxxxxxxxxxxxxxxxx $#
b010110101010011011001110100110100 $G
bxxxxxxxxxxxxxxxxxxxxxxxxxxxxxxxx $N
1#&
bxxxxxxxxxxxxxxxxxxxxxxxxxxxxxxxxx 7
b100011110 5
bxxxxxxxxxxxxxxxxxxxxxxxxxxxxxxxx "e
0$6
bxxxxxxxxxx ?
b00000101000110011000000001110000 #y
b00000101000110011000000001110000 #v
bxxxxxxxxxxxxxxxxxxxxxxxxxxxxxxxx "f
bxxxxxxxxxxxxxxxxxxxxxxxxxxxxxxxxx "D
bxxx $&
1E
0#/
b10000000000000000000000000000000 "h
x#1
b100011110 ")
b01101010100110110011101 #T
b10110101010011011001110100110100 #>
b01101010100110110011101 "F
bxxxxxxxxxx #V
bxxxxxxxxxxxxxxxxxxxxxxxxx #}
b01011110 "+
b01011010101001101100111010 ">
b100011110 $1
x#`
1"\
bxxxxxxxxxxxxxxxxxxxxxxxxxxxxxxxxx ,
bxxx #{
b00001 |
b0110100 #P
bxxxxxxxxxxxxxxxxxxxxxxxxxxxxxxxxxxxxxxxxxxxxxxxxxxxxxxxxxxxxxxxx "P
b00000101000110011000000001110000 0
b00000101000110011000000001110000 "=
b01101010100110110011101 "A
1"7
bxxxxx "&
b10000000000000000000000000000000 4
b0100011110 T
b100011110 "~
b00 "p
b00001 "b
x$+
bxxxxxxxxxxxxxxxxxxxxxxxxxxxxxxxxx "t
bxxxxxxxxx Z
0"
b0100011110 6
bxxxxxxxxxxxxxxxxxxxxxxxx "O
1#r
b00 "z
x$=
#2
0#&
#3
x"n
bxxxxxxxxx Z
b00000101000110011000000001110000 "h
b10100101010110010011000110000000 #H
b10100101010110010011000101111111 "d
b10100101010110010011000110000000 #v
bxxxxxxxxxxxxxxxxxxxxxxxxxxxxxxxxx #l
1#&
b10100101010110010011000110000000 0
bxxxxxxxxxxxxxxxxxxxxxxx O
bxxxxx "&
b10100101010110010011000110000000 d
b1011010101001101100111010000000 #3
b0101101010100110110011101000000000000000000000000000000 "(
0%
b10100101010110010011000101111111 $L
bxxxxxxxxxxxxxxxxxxxxxxxxxxxxxxxxx "t
b10100101010110010011000110000000 "=
x"m
bxxxxxxxxxx #V
bxxxxxxxxxxxxxxxxxxxxxxxxx #}
bxxxxxxxxxxxxxxxxxxxxxxxxx "0
bxxxxx #8
x$+
b010100101010110010011000110000000 "N
b0101101010100110110011101000000000 "T
b00000101000110011000000001110000 4
bxxxxxxxx v
bxxxxxxxxxxxxxxxxxxxxxxx "j
b01011010101001101100111010000000 #y
bxxxxxxxxxxxxxxxxxxxxxxxx "O
bxxxxxxxxxx ?
b010110101010011011001110100000000 "U
b01011010101001101100111010000000 ",
#4
0#&
#5
1#&
b10100101010110010011000110000000 4
b10100101010110010011000110000000 "h
#6
0#&
#7
1#&
#8
0#&
#9
1#&
#10
0$'
0#&
#11
1#&
#12
0#&
#13
1#&
#14
0#&
#15
1#&
#16
0#&
#17
1#&
#18
0#&
#19
1#&
#20
0#&
#21
1#&
#22
0#&
#23
1#&
#24
0#&
#25
1#&
#26
0#&
#27
1#&
#28
0#&
#29
1#&
#30
0#&
#31
1#&
#32
0#&
#33
1#&
#34
0#&
#35
1#&
#36
0#&
#37
1#&
#38
0#&
#39
1#&
#40
0#&
#41
1#&
#42
0#&
#43
1#&
#44
0#&
#45
1#&
#46
0#&
#47
1#&
#48
0#&
#49
1#&
#50
0#&
b111 #W
#51
0"3
b111 #{
0"7
0E
1#&
b111 $&
x#h
b00000000000000000000000000 #'
0"4
b111 ":
b111 w
#52
0#&
#53
1#&
#54
0#&
#55
1#&
#56
0#&
#57
1#&
#58
0#&
#59
1#&
#60
0#&
#61
1#&
#62
0#&
#63
1#&
#64
0#&
#65
1#&
#66
0#&
#67
1#&
#68
0#&
#69
1#&
#70
0#&
b11111111111111111111111111110110 #x
#71
b11100 "6
1#*
b01000000000000000000000 "F
b01000011 $>
b0100000011 T
0C
b100000011 t
b11100 #6
b11100 $9
b11100 "8
b100000011 n
b100000011 #?
b01000011 "+
b01000000000000000000000 "A
b11100 $E
b110000001101000000000000000000000 ,
b01000000000000000000000 #T
b010100000000000000000000000 $*
b11111111111111111111111111110110 $N
b11100 #)
b11100 #J
b11100 $!
1#&
b11100 #F
b11100 !
b01010000000000000000000000 ">
0#r
b11100 j
b11100 $A
b11100 ""
b01000000000000000000000 /
b100000011 $4
b11111111111111111111111111110110 $#
b100000011 ")
b00011 "*
b010100000000000000000000000000000 $G
b00100000011 #B
b11100 #A
b1000011 P
b010100000000000000000000000000000 #p
0#n
b11100 "!
b0000000 #P
b100000011 $@
b00000000000000000000000000001010 "f
0"2
b100000011 $1
b11100 x
b11100 "x
b11100 "w
b10100000000000000000000000000000 #>
b100000011 5
b00000000000000000000000000001010 "9
0*
0"\
b01000011 #Y
b11100 #,
b000000000000000000000000000 +
b11100 "b
b100000000000000000000000000001010 "D
b100000011 #+
b11100 o
b11100 #U
b11100 $,
0#a
b110000001101000000000000000000000 #
b11100 ##
b1100000011 #2
b100000011 "~
b11100 $B
b110000001101000000000000000000000 7
b11100 |
0`
b010100000000000000000000000 #D
b00000000000000000000000000001010 "e
0#0
0#I
0"K
b11100 #k
0"c
b00101000000000000000000000 [
0"i
b000000000000000000000000000000010100000000000000000000000000000 K
b11100 ".
b0100000011 6
b01000000000000000000000 #K
b11100 $Q
b100000011 "1
b00101000000000000000000000 S
b11100 \
b0101000000000000000000000 "r
b0000000000000000000000000000000000000000000000000000000000001010 "P
#72
0#&
